Fifa19 Machine Learning - Business Analytics
…
## # A tibble: 1 x 1
##   `Average Age`
##           <dbl>
## 1          30.9

finalDS %>% summarise("Average Age" = mean(Age))

## # A tibble: 1 x 1
##   `Average Age`
##           <dbl>
## 1          25.1

finalDS %>% filter(Value==0) %>% filter(Overall<=74 & Overall>69) %>% select(Value,Overall) %>% arrange(desc(Overall))

## # A tibble: 48 x 2
##    Value Overall
##    <dbl>   <dbl>
##  1     0    74.0
##  2     0    73.9
##  3     0    73.7
##  4     0    73.5
##  5     0    73.4
##  6     0    73.4
##  7     0    73.4
##  8     0    73.3
##  9     0    73.3
## 10     0    73.1
## # ... with 38 more rows

finalDS %>% filter(Value==0) %>% filter(Overall<=69 & Overall>50) %>% select(Value,Overall) %>% arrange(desc(Overall))

## # A tibble: 180 x 2
##    Value Overall
##    <dbl>   <dbl>
##  1     0    69.0
##  2     0    68.9
##  3     0    68.9
##  4     0    68.8
##  5     0    68.7
##  6     0    68.6
##  7     0    68.6
##  8     0    68.5
##  9     0    68.5
## 10     0    68.4
## # ... with 170 more rows

finalDS %>% filter(Overall<79 & Overall>74) %>% select(Value,Overall) %>% arrange(desc(Overall)) 

## # A tibble: 980 x 2
##    Value Overall
##    <dbl>   <dbl>
##  1 13000    79.0
##  2 15500    79.0
##  3 34500    78.9
##  4 10500    78.9
##  5 22000    78.9
##  6 12000    78.9
##  7 11000    78.9
##  8 13000    78.9
##  9 18000    78.9
## 10 17500    78.9
## # ... with 970 more rows
…
